[
     {
        "_id":"c-10",
        "_parentId":"b-10",
        "_type":"component",
        "_component":"graphic",
        "_classes":"",
        "_layout":"left",
        "title":"",
        "displayTitle":"A community of people",
        "body":"",
        "instruction":"",
        "_graphic": {
            "alt": "alt text",
            "src": "course/en/images/01_introduction/community.png"
        },
        "_pageLevelProgress": {
            "_isEnabled": false
        }

    },
    {
        "_id":"c-11",
        "_parentId":"b-10",
        "_type":"component",
        "_component":"text",
        "_classes":"",
        "_layout":"right",
        "title":"A community of people",
        "displayTitle":"",
        "instruction":"",
        "body":"<br><br><br><br><div style='max-width:350px;'>As Facebook CEO, Mark Zuckerberg, laid out in his <a href='https://www.facebook.com/notes/mark-zuckerberg/building-global-community/10154544292806634/' target='_blank'>letter to the community</a>,</div><br><div style= 'color:#37bada;font-size:26px;line-height:40px; max-width:350px;'><b> “Facebook is not just a technology or media company, but a community of people.”</b>",
        "_pageLevelProgress": {
            "_isEnabled": true
        }
    },
    {
        "_id":"c-20",
        "_parentId":"b-20",
        "_type":"component",
        "_component":"text",
        "_classes":"",
        "_layout":"full",
        "title":"Facebook community",
        "displayTitle":"",
        "body":"It's a community where people can connect with friends, family and issues they care about every day. It's a place that brings together communities and encourages self-expression. As the community grows, Facebook aims to create a safe and respectful experience that enables people to share responsibly. We want Facebook to be a community that is safe, supportive, inclusive, informed and civically engaged.<br><br>",
        "instruction":"",
        "_pageLevelProgress": {
            "_isEnabled": false
        }
    },
    {
        "_id":"c-30",
        "_parentId":"b-30",
        "_type":"component",
        "_component":"text",
        "_classes":"",
        "_layout":"full",
        "title":"Sheryl's quote",
        "displayTitle":"<br><div style='color:#37bada; font-size:26px; line-height:26px;'><b>“Keeping people safe is our top priority.  We won’t stop until we get it right.”</b></div><div style='padding-top:16px;color:#808080;font-size:16px;'>Sheryl Sandberg, <i>Facebook COO</i></div>",
        "instruction":"",
        "_pageLevelProgress": {
            "_isEnabled": false
        }
    },
    {
        "_id":"c-35",
        "_parentId":"b-35",
        "_type":"component",
        "_component":"text",
        "_classes":"",
        "_layout":"full",
        "title":"",
        "displayTitle":"",
        "body":"",
        "instruction":"",
        "_pageLevelProgress": {
            "_isEnabled": false
        }
    },
    {
        "_id":"c-40",
        "_parentId":"b-40",
        "_type":"component",
        "_component":"text",
        "_classes":"",
        "_layout":"full",
        "title":"Community Standards",
        "displayTitle":"Community Standards",
        "body":"We developed out Community Standards to help keep people safe across the Facebook family of apps and services. Our goal is to allow everyone the freedom to share while removing content that is harmful or illegal.<br><br>Our Community Standards outline what is and is not allowed on our platforms. They cover a wide range of topics, including hate speech, nudity, child exploitation, and violent/graphic content. In addition, our ad policies describe what ads are and are not allowed on our platforms. Both our Community Standards and ad policies apply to the entire global community using Facebook, so whether you’re an individual or business, you're held accountable for the content you post. These policies guide how we take actions to review and remove inappropriate content upon discovery.",
        "instruction":"",
        "_pageLevelProgress": {
            "_isEnabled": true
        }
    },
    {
        "_id":"c-50",
        "_parentId":"b-50",
        "_type":"component",
        "_component":"popup-body",
        "_classes":"",
        "_layout":"full",
        "title":"How we review and remove content that violates our Community Standards",
        "displayTitle":"How we review and remove content that violates our Community Standards",
        "body":"At Facebook, we have a zero-tolerance policy against hate speech, terrorism and content that may be harmful to our community.  But that does not mean we have zero occurrences. Facebook is a community of two billion individuals who frequently share messages, imagery and links. When content violates our policies we rely on a variety of tools and processes designed to help us quickly take action and remove it.<br><br><br><b>Click on each of the icons</b> below to learn how we review content that violates our Community Standards.<div style ='text-align:center'><div style='max-width:950px;padding-left:20px;padding-top:40px;'><ul class='flex-container'><li class='flex-item'><div style='color:#a9a9a9;font-size:32px'><a href='#'><div class='popups' id=1><img src='course/en/images/01_introduction/community_reporting.png' alt=''id ='1' max-height='170px' max-width='170px'height='25%' width='170px'> </div></a></div> <font color='#808080'><div style='color:#000000;font-size:18px;padding-top:25px;'><div style='max-width:300px;'><b>COMMUNITY REPORTING</b><br></div></font></div></li><li class='flex-item'><div style='color:#a9a9a9;font-size:32px'><a href='#'><div class='popups' id=2><img src='course/en/images/01_introduction/human_review.png' alt=''id ='2' max-height='170px' max-width='170px'height='25%' width='170px'></div></a></div><div style='color:#000000;font-size:18px;padding-top:25px;'><font color='#808080'><div style='max-width:300px;'><b>HUMAN REVIEW</b><br></div></div></li><li class='flex-item'><div style='color:#a9a9a9;font-size:32px'><a href='#'><div class='popups' id=3><img src='course/en/images/01_introduction/automated_tools.png' alt=''id ='3' max-height='170px' max-width='170px'height='25%' width='170px'> </div></a></div> <font color='#808080'><div style='color:#000000;font-size:18px;padding-top:25px;'><div style='max-width:300px;'><b>AUTOMATED TOOLS</b><br></div></font></div></li></ul>",
        "popups":
        [
            {
                "title":"Community reporting",
                "body":"Our global community plays an essential role in enforcing our standards.  If someone shares something that is abusive, we want to hear about it and remove it, so we make it very easy for people to report content to us.  People can report Pages, profiles, or individual pieces of content to us by clicking the “Report” link.  This flags the content to be reviewed by our Community Operations team.  We're also committed to educating our community to report content for review and removal."
            },
            {
                "title":"Human review",
                "body":"Our Community Operations team of specially trained representatives review flagged reports and take action to remove content that violates our Community Standards.  This team reviews millions of reports every week in more than 40 languages, 24/7. To manage this workload, they prioritize reports with serious safety implications for our community."
            },
            {
                "title":"Automated tools",
                "body":"Tools such as artificial intelligence (AI) are used to help our systems scale. Image matching technology is used to detect content that may violate our standards, and algorithms are used to identify trends early so that we can remove violating content as quickly as possible."
            }
        ],
        "instruction":"",
        "_pageLevelProgress": {
            "_isEnabled": true
        }
    },
    {
        "_id":"c-51",
        "_parentId":"b-50",
        "_type":"component",
        "_component":"text",
        "_classes":"",
        "_layout":"full",
        "title":"Link to Community Standards page",
        "displayTitle":"",
        "body":"Learn more about our Community Standards at <a href='http://www.facebook.com/communitystandards' target='_blank'> facebook.com/communitystandards</a>.",
        "instruction":"",
        "_pageLevelProgress": {
            "_isEnabled": true
        }
    },
    {
        "_id":"c-60",
        "_parentId":"b-60",
        "_type":"component",
        "_component":"text",
        "_classes":"",
        "_layout":"full",
        "title":"Our commitment",
        "displayTitle":"Our commitment",
        "body":"At Facebook, we're committed to improving our processes and tools to help keep our community safe.  To aid with these efforts, we make investments in the following three dimensions:  people, tools and processes, and policy.",
        "instruction":"",
        "_pageLevelProgress": {
            "_isEnabled": true
        }
    },
    {
        "_id":"c-61",
        "_parentId":"b-60",
        "_type":"component",
        "_component":"animate-message",
        "_classes":"",
        "_layout":"full",
        "title":"People",
        "displayTitle":"",
        "body":"",
        "instruction":"",
        "bodyAnimation":"transition.slideLeftIn",
        "backgroundColor":"#ffffff,#ffffff,#ffffff",
        "_spacing":"20px",
        "_pageLevelProgress": {
        "_isEnabled": false
        },
        "_items": [
            {
                "body":"<img src='course/en/images/01_introduction/people.png' style='float:left;width:200px;height:200px;padding-right:20px;'><div style='min-height:283;'><br><h2>People</h2><br>We grow our Community Operations team to help support the review of millions of reports we get every week.  These reviewers help to spot live video that might violate our standards and get help to people who might need it.  These reviewers also help to remove content that we don’t allow on Facebook, such as hate speech and content that exploits minors."
            }
        ]
    },
    {
        "_id":"c-62",
        "_parentId":"b-60",
        "_type":"component",
        "_component":"animate-message",
        "_classes":"",
        "_layout":"full",
        "title":"Tools and processes",
        "displayTitle":"",
        "body":"",
        "instruction":"",
        "bodyAnimation":"transition.slideLeftIn",
        "backgroundColor":"#ffffff,#ffffff,#ffffff",
        "_spacing":"20px",
        "_pageLevelProgress": {
        "_isEnabled": false
        },
        "_items": [
        {
            "body":"<img src='course/en/images/01_introduction/tools_processes.png' style='float:right;padding-right:20px; width:200px;height:200px;padding-left:10px;'><br><h2>Tools and processes</h2><br>We're working on improving our tools and workflows to better support our policies. The goal is to help make it easier for people to report content that violates our standards so that we can review it and remove it quickly if it's confirmed to be a violation."
            }
        ]
    },
    {
        "_id":"c-63",
        "_parentId":"b-60",
        "_type":"component",
        "_component":"animate-message",
        "_classes":"",
        "_layout":"full",
        "title":"Updating policy",
        "displayTitle":"",
        "body":"",
        "instruction":"",
        "bodyAnimation":"transition.slideLeftIn",
        "backgroundColor":"#ffffff,#ffffff,#ffffff",
        "_spacing":"20px",
        "_pageLevelProgress": {
        "_isEnabled": false
        },
        "_items": [
            {
                "body":"<img src='course/en/images/01_introduction/policy.png' style='float:left;width:200px;height:200px;padding-right:20px;'><br><br><h2>Updating policy</h2><br>We're working on protocols to help enable us to take quick actions when things unexpectedly arise that are not addressed in our policies."
            }
        ]
    },
    {
        "_id":"c-70",
        "_parentId":"b-70",
        "_type":"component",
        "_component":"text",
        "_classes":"",
        "_layout":"full",
        "title":"Ensuring brand safety across platforms and placements",
        "displayTitle":"Ensuring brand safety across platforms and placements",
        "body":"We have three key ways we help ensure brand safety across the Facebook family of apps and services.",
        "instruction":"",
        "_pageLevelProgress": {
            "_isEnabled": true
        }

    },
    {
        "_id":"c-71",
        "_parentId":"b-70",
        "_type":"component",
        "_component":"text",
        "_classes":"",
        "_layout":"left",
        "title":"",
        "displayTitle":"",
        "body":"<ul><li>At the top of is our Facebook community standards which dictate what is allowed or not allowed on the platform.</li><br><li>In the middle is our monetization eligibility standards.  These provide clear guidance around the types of publishers and creators eligible to earn money on Facebook and the kind of content that can be monetized.</li><br><li>On the bottom of the pyramid are our brand safety controls.  We put these in place to give advertisers confidence and control over where their ads appear.</li></ul>",
        "instruction":"",
        "_pageLevelProgress": {
            "_isEnabled": false
        }

    },
    {
        "_id":"c-72",
        "_parentId":"b-70",
        "_type":"component",
        "_component":"textOverlayThreeColVert",
        "_classes":"",
        "_layout":"right",
        "title":"",
        "displayTitle":"",
        "body":"<br>",
        "instruction":"",
        "_items": [
                {
                    "text": "Facebook Community Standards",
                    "verticleAlign": "17%",
                    "maxWidth": "73%",
                    "fontSize":"16px",
                    "lineHeight":"",
                    "fontColor":"#ffffff",
                    "dropShadow":"2px 2px 2px rgba(0,0,0,.6)"
                },
                {
                    "text": "Monetization Eligibility Standards",
                    "verticleAlign": "47%",
                    "maxWidth": "50%",
                    "fontSize":"16px",
                    "lineHeight":"",
                    "fontColor":"#ffffff",
                    "dropShadow":"2px 2px 2px rgba(0,0,0,.6)"
                },
                {
                    "text": "Brand safety controls",
                    "verticleAlign": "78%",
                    "maxWidth": "30%",
                    "fontSize":"16px",
                    "lineHeight":"",
                    "fontColor":"#ffffff",
                    "dropShadow":"2px 2px 2px rgba(0,0,0,.6)"
                }
        ],
        "_graphic": {
            "alt": "alt text",
            "src": "course/en/images/01_introduction/pyramid.png",
            "attribution":""
        }
    },
    {
        "_id":"c-80",
        "_parentId":"b-80",
        "_type":"component",
        "_component":"text",
        "_classes":"",
        "_layout":"full",
        "title":"Higher standards for monetization on Facebook",
        "displayTitle":"Higher standards for monetization on Facebook",
        "body":"Facebook offers features that help creators and publishers earn money from their content. This can include showing ads in content or working with a business partner to promote a brand or product. It's important that people in our community feel respected and safe, so all content must comply with Facebook's Terms and Community Standards to be on Facebook.<br><br>However, not all content is appropriate for monetization. To use these monetization features,  and maintain a positive experience for our community and a brand-safe environment for our advertisers, creators and publishers must comply with our:<br><br><ul><li><a href='https://www.facebook.com/communitystandards' target='_blank'><b>Community Standards</b></a><br>Creators and publishers that have violated our Community Standards, including our community policies regarding intellectual property, authenticity and user safety, may be ineligible or may lose their eligibility to monetize using our features.</li><br><li><a href='https://www.facebook.com/payments_terms' target='_blank'><b>Payment Terms</b></a><br>Creators and publishers must comply with Facebook's Payment Terms or may lose their eligibility to use our monetization features.</li><br><li><a href='https://www.facebook.com/page_guidelines.php' target='_blank'><b>Page Terms</b></a><br>Creators publishing content from a Page must comply with our Page Terms, or may lose their eligibility to use our monetization features.</li><br><li><b><a href='https://www.facebook.com/help/publisher/1348682518563619?locale=en_US' target='_blank'>Content Guidelines for Monetization</a></b><br>To be eligible for monetization using our features, content must meet our Content Guidelines for Monetization. Content that does not meet this criteria may be ineligible for monetization, and repeated violations of this criteria may result in removal of access to our monetization features.</li></ul><br><br><br><h2>Creators and publishers must also:</h2><br><ul><li><b>Share authentic content</b><br>Creators and publishers posting content flagged as misinformation and false news may be ineligible or may lose their eligibility to monetize. You can read more about this <a href='https://newsroom.fb.com/news/2017/04/working-to-stop-misinformation-and-false-news/' target='_blank'>here</a>. Creators and publishers sharing clickbait or sensationalism may be ineligible or lose their eligibility to monetize. You can read more about this <a  href='https://newsroom.fb.com/news/2017/06/news-feed-fyi-showing-more-informative-links-in-news-feed/' target='_blank'>here</a>.</li><br><li><b>Develop an established presence</b><br> Creators and publishers must have an authentic, established presence on Facebook. To be eligible for all monetization features, this means having an established presence for at least one month. To access our Ad Break product, this also includes maintaining a sufficient follower base, indicated by your Facebook friends or followers.</li></ul><br><br>Learn more <a href='https://www.facebook.com/business/help/409950705796014' target='_blank'>about the review process</a> for apps, websites and Facebook Pages where your ads could appear.",
        "instruction":"",
        "_pageLevelProgress": {
            "_isEnabled": true
        }
    },
    {
        "_id": "c-90",
        "_parentId": "b-90",
        "_type": "component",
        "_component": "co-jump",
        "_classes": "color-test",
        "_preLinkBody": "Next, let’s take a look at some ",
        "_linkBody": "Advertiser Controls",
        "_postLinkBody": ".",
        "_link": "#/id/co-100",
        "_graphic": "adapt/css/assets/icon_nextPage.png",
        "_pageLevelProgress": {
            "_isEnabled": false
        }
    },
    {
        "_id":"c-100",
        "_parentId":"b-100",
        "_type":"component",
        "_component":"text",
        "_classes":"",
        "_layout":"full",
        "title":"Integrated content",
        "displayTitle":"",
        "body":"On Facebook and Instagram, everyone’s feed is different and personalized based on the people they know, their interests, and content they’ve subscribed to, making each news feed story unique. As a person scrolls through his/her feed they may see posts from friends, family, businesses they follow, and advertisements. Because people understand each of these posts is a distinct piece of content, it's understood that an advertisement does not support or endorse the views of content that may appear above or below the ad as the person scrolls.<br><br>Advertisers can also extend their campaigns outside of the News Feed to reach more people they care about and drive more results for their business. As we expand the places where ads can be delivered, we're including a growing number of placement options that are more deeply integrated with content. In-stream video, Instant Articles and Audience Network provide our advertisers with more opportunities to reach their target audiences within unique, immersive experiences, but introduce an element of content adjacency. We recognize that placements that are deeply integrated with content have the potential to present issues for brands. Advertisers may not want to be associated with certain types of content that don’t fit their brand.<br><br>In this module, we’ll look at brand safety and the tools advertisers can gain greater control over how and where their brands appear.",
        "instruction":"",
        "_pageLevelProgress": {
            "_isEnabled": true
        }
    },

    {
        "_id": "c-102",
        "_parentId": "b-100",
        "_type":"component",
        "_component":"video",
        "_classes":"",
        "_layout":"full",
        "title":"",
        "displayTitle":"",
        "body":"",
        "instruction":"",
        "_items": [
            {
                "videoSrc": "course/en/video/instream_demo.mp4",
                "videoText": "in-stream videos",
                "isControls": "",
                "loop": "true",
                "muteBtn": "true",
                "autoplay": "true",
                "fontSize": "",
                "fontWeight": "bold",
                "fontColor": ""
            },
            {
                "videoSrc": "course/en/video/instant_articles_demo.mp4",
                "videoText": "Instant Articles",
                "isControls": "",
                "loop": "true",
                "muteBtn": "true",
                "autoplay": "true",
                "fontSize": "",
                "fontWeight": "bold",
                "fontColor": ""
            },
            {
                "videoSrc": "course/en/video/audience_network_demo.mp4",
                "videoText": "Audience Network",
                "isControls": "",
                "loop": "true",
                "muteBtn": "true",
                "autoplay": "true",
                "fontSize": "",
                "fontWeight": "bold",
                "fontColor": ""
            }
        ]
    },
    {
        "_id":"c-120",
        "_parentId":"b-120",
        "_type":"component",
        "_component":"text",
        "_classes":"",
        "_layout":"full",
        "title":"Tools for advertisers",
        "displayTitle":"Tools for advertisers",
        "body":"While articles, websites, apps and videos within in-stream video, Instant Articles and Audience Network are reviewed and removed if they violate our Community Standards, we also want to give brands the ability to make decisions about what type of content their ads appear next to. We recognize that brands may want to avoid showing ads adjacent to controversial content or material that doesn't fit their brand.<br><br>We provide a variety of options for advertisers to control where their ads appear so they can continue to safely and confidently deliver ads across the Facebook family of apps and services. Advertisers can use the following tools to block content within in-stream video, Instant Articles and Audience Network.",
        "instruction":"",
        "_pageLevelProgress": {
            "_isEnabled": true
        }
    },
    {
        "_id": "c-121",
        "_parentId": "b-120",
        "_type": "component",
        "_component":"animate-message",
        "_classes":"",
        "_layout":"full",
        "title":"",
        "displayTitle":"",
        "body":"",
        "instruction":"",
        "titleAnimation":"transition.slideRightIn",
        "bodyAnimation":"transition.slideLeftIn",
        "backgroundColor":"#ffffff,#ffffff,#ffffff",
        "_spacing":"20px",
        "_pageLevelProgress": {
        "_isEnabled": false
        },
        "_items": [
            {
                "item_title": "",
                "body":"<br><img src='course/en/images/02_advertiser_controls/placement_opt_out.png' style='float:left;width:225px;padding-right:60px;'><h2>Placement opt-out</h2><br>Advertisers may opt out from showing ads in any placement, including in-stream, Instant Articles and Audience Network if they do not want to run their ads within these environments."
            }
         ]
    },
    {
        "_id": "c-122",
        "_parentId": "b-120",
        "_type": "component",
        "_component":"animate-message",
        "_classes":"",
        "_layout":"full",
        "title":"",
        "displayTitle":"",
        "body":"",
        "instruction":"",
        "titleAnimation":"transition.slideRightIn",
        "bodyAnimation":"transition.slideLeftIn",
        "backgroundColor":"#ffffff,#ffffff,#ffffff",
        "_spacing":"20px",
        "_pageLevelProgress": {
        "_isEnabled": false
        },
        "_items": [
            {
                "item_title": "",
                "body":"<br><img src='course/en/images/02_advertiser_controls/category_blocking.png' style='float:left;width:225px;padding-right:60px;'><h2>Category blocking</h2><br>Advertisers can choose to block certain sensitive categories of content in which they don’t want their ads to be seen."
            }
         ]
      },
      {
        "_id": "c-123",
        "_parentId": "b-120",
        "_type": "component",
        "_component":"animate-message",
        "_classes":"",
        "_layout":"full",
        "title":"",
        "displayTitle":"",
        "body":"",
        "instruction":"",
        "titleAnimation":"transition.slideRightIn",
        "bodyAnimation":"transition.slideLeftIn",
        "backgroundColor":"#ffffff,#ffffff,#ffffff",
        "_spacing":"20px",
        "_pageLevelProgress": {
        "_isEnabled": false
        },
        "_items": [
            {
                "item_title": "",
                "body":"<br><img src='course/en/images/02_advertiser_controls/precampaign_transparency.png' style='float:left;width:225px;padding-right:60px;'><h2>Publisher list</h2><br>This tool offers upfront, publisher-level transparency for in-stream video ads. Advertisers will be able to see a list of where their ads could potentially deliver prior to setting a campaign live. You can use this list to help you create a block list. <sup>1</sup>"
            }
         ]
      },
      {
        "_id": "c-124",
        "_parentId": "b-120",
        "_type": "component",
        "_component":"animate-message",
        "_classes":"",
        "_layout":"full",
        "title":"",
        "displayTitle":"",
        "body":"",
        "instruction":"",
        "titleAnimation":"transition.slideRightIn",
        "bodyAnimation":"transition.slideLeftIn",
        "backgroundColor":"#ffffff,#ffffff,#ffffff",
        "_spacing":"20px",
        "_pageLevelProgress": {
        "_isEnabled": false
        },
        "_items": [
            {
                "item_title": "",
                "body":"<br><img src='course/en/images/02_advertiser_controls/domain_app_block_list.png' style='float:left;width:225px;padding-right:60px;'><h2>Block lists</h2><br>Advertisers can block delivery of ads to specific apps, domains and Pages across in-stream video, Audience Network and Instant Articles. They can also set a block list at the account level and have them applied to all campaigns within that account without manual inclusion."
            }
         ]
      },
    {
        "_id": "c-125",
        "_parentId": "b-120",
        "_type": "component",
        "_component":"animate-message",
        "_classes":"",
        "_layout":"full",
        "title":"",
        "displayTitle":"",
        "body":"",
        "instruction":"",
        "titleAnimation":"transition.slideRightIn",
        "bodyAnimation":"transition.slideLeftIn",
        "backgroundColor":"#ffffff,#ffffff,#ffffff",
        "_spacing":"20px",
        "_pageLevelProgress": {
        "_isEnabled": false
        },
        "_items": [
            {
                "item_title": "",
                "body":"<br><img src='course/en/images/02_advertiser_controls/publist.png' style='float:left;width:225px;padding-right:60px;'><h2>Publisher delivery reports</h2><br>This provides advertisers with a list of where their ads have run. Note that publisher delivery reports are gradually being rolled out, starting with Facebook in-stream videos, so you may not yet see all available placement options."
            }
         ]
      },
    {
        "_id":"c-126",
        "_parentId":"b-120",
        "_type":"component",
        "_component":"text",
        "_classes":"",
        "_layout":"full",
        "title":"",
        "displayTitle":"",
        "body":"<sup>1</sup><cite>Note: The publisher list is currently available for in-stream video ad placements and Audience Network. Instant Articles publishers will appear once available.</cite>",
        "instruction":"",
        "_pageLevelProgress": {
            "_isEnabled": true
        }
    },
    {
    "_id":"c-127",
    "_parentId":"b-126",
    "_type":"component",
    "_component":"media",
    "_classes":"",
    "_layout":"full",
    "title":"Video: Publisher lists, block lists and publisher delivery reports",
    "displayTitle": "Video: Publisher lists, block lists and publisher delivery reports",
    "body": "Watch this video to see how to download a publisher list, create a block list, and download a publisher delivery report. For more detail, scroll down to see the full step by step instructions.",
    "instruction": "",
    "_setCompletionOn":"inview",
    "_useClosedCaptions":true,
    "_startLanguage":"en",
    "_media": {
        "mp4": "course/en/video/brand_safety.mp4",
        "poster": "course/en/video/brand_safety.jpg",
        "cc": [
            {
                "srclang": "en",
                "src": "course/en/video/big_buck_bunny_sub.vtt"
            },
            {
                "srclang": "pl",
                "src": "course/en/video/big_buck_bunny_sub-pl.vtt"
            }
        ]
    },
    "_transcript": {
        "_setCompletionOnView":true,
        "_inlineTranscript": true,
        "_externalTranscript": false,
        "inlineTranscriptButton": "Transcript",
        "inlineTranscriptCloseButton": "Close Transcript",
        "inlineTranscriptBody": "",
        "transcriptLinkButton": "Transcript",
        "transcriptLink": "assets/transcript.pdf"
    },
    "_playerOptions": {
        "poster": "",
        "showPosterWhenEnded": false,
        "defaultVideoWidth": 480,
        "defaultVideoHeight": 270,
        "videoWidth": -1,
        "videoHeight": -1,
        "defaultAudioWidth": 400,
        "defaultAudioHeight": 30,
        "defaultSeekBackwardInterval": "(media.duration * 0.05)",
        "defaultSeekForwardInterval": "(media.duration * 0.05)",
        "audioWidth": -1,
        "audioHeight": -1,
        "startVolume": 0.8,
        "loop": false,
        "autoRewind": true,
        "enableAutosize": true,
        "alwaysShowHours": false,
        "showTimecodeFrameCount": false,
        "framesPerSecond": 25,
        "autosizeProgress" : true,
        "alwaysShowControls": false,
        "hideVideoControlsOnLoad": false,
        "clickToPlayPause": true,
        "iPadUseNativeControls": false,
        "iPhoneUseNativeControls": false,
        "AndroidUseNativeControls": false,
        "features": ["playpause","current","progress","duration","tracks","volume","fullscreen"],
        "isVideo": true,
        "enableKeyboard": true,
        "pauseOtherPlayers": true,
        "startLanguage": "",
        "tracksText": "mejs.i18n.t('Captions/Subtitles')",
        "hideCaptionsButtonWhenEmpty": true,
        "toggleCaptionsButtonWhenOnlyOne": false,
        "slidesSelector": ""
            }
    },
    {
        "_id":"c-128",
        "_parentId":"b-128",
        "_type":"component",
        "_component":"text",
        "_classes":"",
        "_layout":"full",
        "title":"Step-by-step for placement opt-out",
        "displayTitle":"Step by step",
        "body":"<h2>Placement opt-out</h2><br>At the ad level, you can control where your ads will run. We recommend advertisers select all placements in order to achieve the best performance and increase reach, but you can also manually control these placements. You can opt out from showing your ads in any placement, including in-stream, Instant Articles and Audience Network. Removing placements is the least desirable option because it's a broad solution and reduces overall audience reach.<br><br>Learn how you can deliver ads across placements and optimize delivery to get you the lowest overall cost per result in our <a href='https://www.facebook.com/business/help/965529646866485' target='_blank'>Help Center article</a>.<br><br><b>To select your placements in ad creation:</b><br><br><ol><li>Go to <a href='https://www.facebook.com/ads/manager' target='_blank'>Ads Manager.</a></li><li>Click <b>Create Ad</b>.</li><li>Choose your objective, then click <b>Continue</b>.</li><li>At the Ad Set level, define the target audience for your ad.</li><li>Select <b>Edit Placements</b> in the Placements section.<br><img src='course/en/images/02_advertiser_controls/edit_placements.png'></li><li>Click to check the box next to each placement to add or remove it.  If you see Ineligible next to a placement, this means your ad type or objective doesn't support the placement.<br><img src='course/en/images/02_advertiser_controls/selected.png'> = placement selected<br><img src='course/en/images/02_advertiser_controls/deselected.png'> = placement not selected</li><li>(Optional) Click the Device Types dropdown menu to limit your placement selection to either mobile or desktop devices.<br><img src='course/en/images/02_advertiser_controls/device_types.png'></li></ol>",
        "instruction":"",
        "_pageLevelProgress": {
            "_isEnabled": true
        }
    },
      {
        "_id":"c-130",
        "_parentId":"b-130",
        "_type":"component",
        "_component":"text",
        "_classes":"",
        "_layout":"full",
        "title":"Step-by-step for category blocking",
        "displayTitle":"",
        "body":"<h2>Category blocking</h2><br>You can exclude delivery of your ads so that they do not appear adjacent to sensitive categories like controversial social issues.<br><br>To block your ad from running within certain content categories:<br><br><ol><li>Go to <a href='https://www.facebook.com/ads/manager' target='_blank'>Ads Manager.</a></li><li>Click <b>Create Ad</b>.</li><li>Choose your objective, then click <b>Continue</b>.</li><li>At the Ad Set level, define the target audience for your ad.</li><li>Select <b>Edit Placements</b> in the Placements section.<br><br><img src='course/en/images/02_advertiser_controls/edit_placements_categories.png'></li><li>Select <b>Exclude Categories</b>, the <b>Exclude Content and Publishers</b> section.<br><i>Note:</i> Choosing to exclude categories will give you fewer delivery options and narrow your audience.</li><br><li>Choose the categories in which you don't want your ads to be seen.<br><br><img src='course/en/images/02_advertiser_controls/exclude_categories.png'><br><br><ul><li><b>Debatable Social Issues</b> - Content focusing on social issues where an individual may have a strong personal opinion such as civil, individual and political rights.</li> <li><b>Mature</b> - Mature content, such as content that’s violent or graphic, is generally not eligible for monetization. See the content guidelines to <a href='https://www.facebook.com/help/publisher/1348682518563619' target='_blank'>learn more</a>.</li><li><b>Tragedy and Conflict</b> - Content focusing on events causing great suffering, destruction and distress, such as a serious accident, crime, or natural catastrophe.</li><li><b>Dating</b> - This category refers specifically to dating websites and apps; it does not necessary exclude ads from content concerning relationships.</li><li><b>Gambling</b> - Websites and apps where winners receive money or prizes. However, your ads may still appear on websites or apps where people play games just for fun.</li></ul></li></ol><br><i>Note:</i> Facebook will try to ensure your ad is not shown against the categories of content you choose to block, but cannot guarantee success in blocking your ad 100% of the time.<br><br><i>Note:</i> Blocking your ads from content categories will limit your campaign's delivery options, resulting in fewer people seeing your ads.",
        "instruction":"",
        "_pageLevelProgress": {
            "_isEnabled": true
        }
    },
    {
        "_id":"c-140",
        "_parentId":"b-140",
        "_type":"component",
        "_component":"text",
        "_classes":"",
        "_layout":"full",
        "title":"Step-by-step for publisher list",
        "displayTitle":"",
        "body":"<h2>Publisher list</h2><br>This is a list of places your ads could run. You can add specific Pages, apps or websites to your block list to prevent your ads from delivering in those places.<ul><li>Download a complete list of the apps, Pages and sites where your ads could appear.</li><li>Understand which publishers are new.</li><li>Use the list to inform any block lists.</li></ul><br>To view the publisher list:<ol><li>Go to <b>Business Manager</b>.</li><li>Click <b>Business Settings</b> in the top right corner.</li><li>Below <b>People and Assets</b>, click <b>Block Lists</b>.</li><li>Click the <b>Manage</b> button, and select <b>See Where Ads Could Appear</b>.<br><br><img src='course/en/images/02_advertiser_controls/publisherlist.png'><br><br></li><li>A list of publishers will then automatically download in CSV format. For each row, the “yes” or “no” indicates whether or not that publisher URL applies to that placement.</li></ol><br><br><img src='course/en/images/02_advertiser_controls/sample_precampaign_transparency_list.png'><br><br><cite>Note: Currently available for in-stream and Audience Network only. Instant Articles publishers will appear once available.</cite><br><br><b>The publisher list CSV includes the following columns:</b>",
        "instruction":"",
        "_pageLevelProgress": {
            "_isEnabled": true
        }
    },
    {
        "_id":"c-141",
        "_parentId":"b-140",
        "_type":"component",
        "_component":"content-accordion",
        "_classes":"",
        "_layout":"left",
        "title": "Pre-campaign publisher list - columns and descriptions",
        "displayTitle": "",
        "body": "",
        "instruction": "",
        "_setCompletionOn":"inview",
        "_items": [
        {
            "alt": "URL",
            "title": "URL",
            "body": "<ul><li>Description: The URL of the publisher (Web), URL to iTunes or Google Play (App) or Facebook Page URL (Facebook In-Stream Video)</li><li>Required: Yes</li><li>Format: Properly formatted URL</li></ul>"
        },
        {
            "alt": "Instant Articles",
            "title": "Instant Articles",
            "body": "<ul><li>Description: Is this publisher on Instant Articles</li><li>Format: Yes | No</li></ul>"
        },
        {
            "alt": "Facebook In-Stream Video",
            "title": "Facebook In-Stream Video",
            "body": "<ul><li>Description: Is this publisher on Facebook In-Stream Video</li><li>Format: Yes | No</li></ul>"
        },
        {
            "alt": "Audience Network - Native/Banner/ Interstitial",
            "title": "Audience Network - Native / Banner / Interstitial",
            "body": "<ul><li>Description: Audience Network web</li><li>Format: Yes | No</li></ul>"
        },
        {
            "alt": "Audience Network - In-Stream Videos",
            "title": "Audience Network - In-Stream Videos",
            "body": "<ul><li>Description: Audience Network video</li><li>Format: Yes | No</li></ul>"
        }
      ]
    },
    {
        "_id":"c-142",
        "_parentId":"b-140",
        "_type":"component",
        "_component":"content-accordion",
        "_classes":"",
        "_layout":"right",
        "title": "Pre-campaign publisher list - columns and descriptions",
        "displayTitle": "",
        "body": "",
        "instruction": "",
        "_setCompletionOn":"inview",
        "_items": [
        {
            "alt": "Audience Network - Rewarded Videos",
            "title": "Audience Network - Rewarded Videos",
            "body": "<ul><li>Description: Audience Network Rewarded Video</li><li>Format: Yes | No</li></ul>"
        },
        {
            "alt": "Organization / Brand / Content Creator",
            "title": "Organization / Brand / Content Creator",
            "body": "<ul><li>Description: Indicates the name of the parent publisher, since some URLs may not be recognizable</li><li>Required: Yes</li><li>Common, recognizable name of the organization, brand, or content creator</li></ul>"
        },
        {
            "alt": "Page Name",
            "title": "Page Name",
            "body": "<ul><li>Description: Indicates the name of the Facebook page when applicable.</li><li>Required: No</li><li>The public name of the Facebook Page</li></ul>"
        },
        {
            "alt": "Date Added",
            "title": "Date Added",
            "body": "<ul><li>Description: Date a new or reactivated publisher has been added to the list</li><li>This column only refers to either <i>new</i> publishers or those who have been <i>reactivated</i> after being inactive for 60 days or longer. Filter this column by date to see which have been added since the last time you looked at the list.</li><li>Format: DD-MM-YY</li></ul>"
        }
      ]
    },
    {
        "_id":"c-150",
        "_parentId":"b-150",
        "_type":"component",
        "_component":"text",
        "_classes":"",
        "_layout":"full",
        "title":"Step-by-step for block lists",
        "displayTitle":"",
        "body":"<h2>Block lists</h2><br>You can block your ads from running on specific websites, apps, or Pages within in-stream video, Instant Articles and Audience Network by uploading block lists at the ad set level. Your block list may include up to 10,000 website domains, app store URLs or Pages. You can reuse your block list across multiple ad campaigns.<br><br>You can also set a block list at the account level and have it applied to all campaigns within that account. You can manage block lists at the account level and share them across teams and organizations. <a href='https://www.facebook.com/business/help/1314478651899918' target='_blank'>Learn more</a>.<br><br><img src='course/en/images/02_advertiser_controls/apply_to_all_adaccts.png'><br><br><b>To create a block list:</b><br><br><ol><li>In a .CSV or .TXT file, create a list of the website domains and app store URLs where you don't want your ads to appear. You can include one domain or app store URL per line, or separate them with commas. Name it descriptively so you can easily identify it in Business manger.<br><br><i>Tip:</i> You can be more liberal with your block lists at the Business Manager level, then provide additional blocking at the campaign level.<br><br></li><li>Copy the URLs you wish to block from the downloaded publisher list. If you wish to block all surfaces of a given publisher make sure to include all relevent URLs (e.g., the web site, Facebook Page,  Apple iTunes and Google Play download URLs). You only need to include top level domains, not every subdomain. For example, www.jaspersmarketblog.com/food will be blocked if you include www.jaspersmarketblog.com.<br><br><img src='course/en/images/02_advertiser_controls/block_list.png'><br></li><li>Save the file to your computer.</li><li>Navigate to <a href='http://www.facebook.com/ads/manager/blocklists' target='_blank'>facebook.com/ads/manager/blocklists</a></li><li>Click the <b>Manage</b> button and select <b>Add and Edit Block Lists</b> from the drop down.<br><br><img src='course/en/images/02_advertiser_controls/blocklist_create.png'><br><br></li><li>Click <b>Create Block List</b><br><br><img src='course/en/images/02_advertiser_controls/createblocklist.png'><br><br></li><li>Click <b>Upload File</b>, select your block list file and click <b>Open</b>.</li><li>Click <b>Create Block List</b><br><br><img src='course/en/images/02_advertiser_controls/blocklist_upload_slide_12.png'><br></li></ol><br><b>Block list warnings:</b><br><br><ul><li>If you exceed the maximum number of publishers in your block list you'll receive a red error message with specific instructions. Applying this block list will stop delivery of your ads to all placements. Reduce the entries and try uploading again.<br><br><img src='course/en/images/02_advertiser_controls/blocklist_red_error_13.png'><br><br></li><li>A yellow warning message indicates that your ads won't deliver in certain placements. To ensure optimal delivery, reduce entries from your block list and try again.<br><br><img src='course/en/images/02_advertiser_controls/blocklist_yellow_error_14.png'></li><ul><br><br>If you're a Business Manager admin, you can apply a block list to all ad accounts. This is essential if you want to apply the block next time you create an ad.<ul><li>Go to Business settings.</li><li>Select a block list.</li><li>Click <b>Apply to all ad accounts</b>. This will apply this block list to all ad sets and campaigns.</li><li>To assign this block list to only certain accounts click <b>Assign Ad Accounts</b>.<br><br><img src='course/en/images/02_advertiser_controls/applyblocklist.png'></li></ul>",
        "body":"<h2>Block lists</h2><br>You can block your ads from running on specific websites, apps, or Pages within in-stream video, Instant Articles and Audience Network by uploading block lists at the ad set level. Your block list may include up to 10,000 website domains, app store URLs or Pages. You can reuse your block list across multiple ad campaigns.<br><br>You can also set a block list at the account level and have it applied to all campaigns within that account. These block lists can be managed at the account level and shared across teams and organizations. <a href='https://www.facebook.com/business/help/1314478651899918' target='_blank'>Learn more</a>.<br><br><img src='course/en/images/02_advertiser_controls/apply_to_all_adaccts.png'><br><br><b>To create a block list:</b><br><br><ol><li>In a .CSV or .TXT file, create a list of the website domains and app store URLs where you don't want your ads to appear. You can include one domain or app store URL per line, or separate them with commas. Name it descriptively so you can easily identify it Business manger.<br><br><i>Tip:</i> You can be more liberal with your block lists at the Business Manager level, then provide additional blocking at the campaign level.<br><br></li><li>Copy the URLs you wish to block from the downloaded publisher list. If you wish to block all surfaces of a given publisher make sure to include all relevent URLs (e.g., the web site, Facebook Page,  Apple iTunes and Google Play download URLs). You only need to include top level domains, not every subdomain. For example, www.jaspersmarketblog.com/food will be blocked if you include www.jaspersmarketblog.com <br><br><img src='course/en/images/02_advertiser_controls/block_list.png'><br></li><li>Save the file to your computer.</li><li>Navigate to <a href='http://www.facebook.com/ads/manager/blocklists' target='_blank'>facebook.com/ads/manager/blocklists</a></li><li>Click the <b>Manage</b> button and select <b>Add and Edit Block Lists</b> from the drop down.<br><br><img src='course/en/images/02_advertiser_controls/blocklist_create.png'><br><br></li><li>Click <b>Create Block List</b><br><br><img src='course/en/images/02_advertiser_controls/createblocklist.png'><br><br></li><li>Click <b>Upload File</b>, select your block list file and click <b>Open</b>.</li><li>Click <b>Create Block List</b><br><br><img src='course/en/images/02_advertiser_controls/blocklist_upload_slide_12.png'><br></li></ol><br><b>Block list warnings:</b><br><br><ul><li>If you exceed the maximum number of publishers in your block list you'll receive a red error message with specific instructions. Applying this block list will stop delivery of your ads to all placements. Reduce the entries and try uploading again.<br><br><img src='course/en/images/02_advertiser_controls/blocklist_red_error_13.png'><br><br></li><li>A yellow warning message indicates that your ads won't deliver in certain placements. To ensure optimal delivery, reduce entries from your block list and try again.<br><br><img src='course/en/images/02_advertiser_controls/blocklist_yellow_error_14.png'></li><ul><br><br>If you're a Business Manager admin, you can apply a block list to all ad accounts. This is essential if you want to apply the block next time you create an ad.<ul><li>Go to Business settings.</li><li>Select a block list.</li><li>Click <b>Apply to all ad accounts</b>. This will apply this block list to all ad sets and campaigns.</li><li>To assign this block list to only certain accounts click <b>Assign Ad Accounts</b>.<br><br><img src='course/en/images/02_advertiser_controls/applyblocklist.png'></li></ul>",
        "instruction":"",
        "_pageLevelProgress": {
            "_isEnabled": true
        }
    },
    {
        "_id":"c-151",
        "_parentId":"b-150",
        "_type":"component",
        "_component":"text",
        "_classes":"",
        "_layout":"full",
        "title":"Apply block list",
        "displayTitle":"",
        "body":"To apply your block list:</b><br><br><ol><li>Go to <a href='https://www.facebook.com/ads/manager' target='_blank'>Ads Manager.</a></li><li>Click <b>Create Ad</b>.</li><li>Choose your objective, then click <b>Continue</b>.</li><li>At the Ad Set level, define the target audience for your ad.</li><li>Select <b>Edit Placements</b> in the Placements section.</li><li>Click <b>Apply Block Lists</b>, under the <b>ADVANCED OPTIONS section. section</b>.</li><li>Choose the specific block list you want to apply to in-stream video, Audience Network, or Instant Articles placements for an ad campaign.</li></ol><br><img src='course/en/images/02_advertiser_controls/select_block_list.png'><br><br>You can also apply an additional smaller block list at the ad set level if you need to refine block lists for the needs of individual campaigns.<br><br><img src='course/en/images/02_advertiser_controls/select_block_list_aset.png'>",
        "instruction":"",
        "_pageLevelProgress": {
            "_isEnabled": true
        }
    },
    {
        "_id":"c-152",
        "_parentId":"b-150",
        "_type":"component",
        "_component":"text",
        "_classes":"",
        "_layout":"full",
        "title":"Publisher delivery reports",
        "displayTitle":"Publisher delivery reports",
        "body":"Download a complete list of where your ads actually appeared and confirm that your block lists were working as expected.<br><br><i>Note:</i> This feature is rolling out gradually and may not yet be available to all advertisers. Not all publishers where ads appear may be listed in the report.<br><br><h2>Downloading</h2><br>To download a publisher report:<ul><li>Go to Business Settings within Business Manager.</li><li>Click <b>Manage</b> and select <b>See Where Ads Have Appeared</b>.<br><br><img src='course/en/images/02_advertiser_controls/pubreport_start.png'><br></li><li>Select <b>Business or ad account</b> or <b>Placements</b>.</li><li>Click <b>Download</b>.<br><br><img src='course/en/images/02_advertiser_controls/pubreport_download.png'><br><br></li><li>Once your file has downloaded, open it.</li></ul><br><br><h2><bre>Reading and understanding</h2><br>The report will include data from the past 30 days. In the report you'll see the following columns:<ul><li>URL</li><li>Organization/Brand/Content Creator</li><li>Page Name</li><li>Order by Impression volume (where you're ads have run the most)</li></ul><br>Review the list to ensure you're comfortable with where your ads have run. If there are publishers you'd like to no longer deliver on, add them to your block lists.<br><br><img src='course/en/images/02_advertiser_controls/pubreport.png'>",
        "instruction":"",
        "_pageLevelProgress": {
            "_isEnabled": true
        }
    },
    {
        "_id": "c-190",
        "_parentId": "b-190",
        "_type": "component",
        "_component": "co-jump",
        "_classes": "color-test",
        "_preLinkBody": "Let’s do a quick ",
        "_linkBody": "Knowledge Check",
        "_postLinkBody": ".",
        "_link": "#/id/co-150",
        "_graphic": "adapt/css/assets/icon_nextPage.png",
        "_pageLevelProgress": {
            "_isEnabled": false
        }
    },
    {
        "_id": "c-200",
        "_parentId": "b-200",
        "_type":"component",
        "_component":"mcq",
        "_classes":"",
        "_layout":"full",
        "_attempts":1,
        "_shouldDisplayAttempts": false,
        "_questionWeight":1,
        "_isRandom":false,
        "_selectable":3,
        "_setCompletionOn":"inview",
        "title": "Question 1 of 5",
        "displayTitle": "Question 1 of 5",
        "body": "Which of the following do Community Standards apply to?  (Choose three.)",
        "instruction": "",
        "_items": [
            {
              "text": "All advertiser content across Facebook platforms",
              "_shouldBeSelected":true
            },
            {
              "text": "All content including ads on in-stream videos, Instant Articles and Audience Network.",
              "_shouldBeSelected":true

            },
            {
              "text": "All community generated content in the Facebook News Feed",
              "_shouldBeSelected":true
            },
            {
              "text": "All Stories on Facebook and Instagram",
              "_shouldBeSelected":false
            }
        ],
        "_feedback":{
            "correct":"That's correct!  Both our Community Standards and ad policies apply to the entire global community using Facebook.  This includes all community-generated and advertiser content across Facebook platforms, including ads on in-stream videos, Instant Articles and Audience Network.",
            "_incorrect": {
              "notFinal": "",
              "final": "Sorry, those aren't the right answers.  Both our Community Standards and ad policies apply to the entire global community using Facebook.  This includes all community-generated and advertiser content across Facebook platforms, including ads on in-stream videos, Instant Articles and Audience Network."
            },
            "_partlyCorrect": {
              "notFinal": "",
              "final": "Both our Community Standards and ad policies apply to the entire global community using Facebook.  This includes all community-generated and advertiser content across Facebook platforms, including ads on in-stream videos, Instant Articles and Audience Network."
            }
        },
        "_pageLevelProgress": {
        "_isEnabled": true
        }
    },
    {
        "_id": "c-210",
        "_parentId": "b-210",
        "_type":"component",
        "_component":"mcq",
        "_classes":"",
        "_layout":"full",
        "_attempts":1,
        "_shouldDisplayAttempts": false,
        "_questionWeight":1,
        "_isRandom":false,
        "_selectable":3,
        "_setCompletionOn":"inview",
        "title": "Question 2 of 5",
        "displayTitle": "Question 2 of 5",
        "body": "Which categories of content can advertisers block across in-stream videos, Instant Articles, Audience Network?  (Choose three.)",
        "instruction": "",
        "_items": [
            {
              "text": "Alcohol",
              "_shouldBeSelected":false
            },
            {
              "text": "Gambling",
              "_shouldBeSelected":true
            },
            {
              "text": "Mature",
              "_shouldBeSelected":true
            },
            {
              "text": "Political",
              "_shouldBeSelected":false
            },
            {
              "text": "Tragedy and conflict",
              "_shouldBeSelected":true
            }
        ],
        "_feedback":{
            "correct":"That's correct!  Advertisers may block certain sensitive categories of content in which they don’t want their ads to be seen next to.  Advertisers may exclude the following content categories: Dating, Debatable social issues, Gambling, Mature, and Tragedy and Conflict.",
            "_incorrect": {
              "notFinal": "",
              "final": "Sorry, those aren't the right answers.  Advertisers may block certain sensitive categories of content in which they don’t want their ads to be seen next to.  Advertisers may exclude the following content categories: Dating, Debatable social issues, Gambling, Mature, and Tragedy and Conflict."
            },
            "_partlyCorrect": {
              "notFinal": "",
              "final": "Advertisers may block certain sensitive categories of content in which they don’t want their ads to be seen next to.  Advertisers may exclude the following content categories: Dating, Debatable social issues, Gambling, Mature, and Tragedy and Conflict."
            }
        },
        "_pageLevelProgress": {
        "_isEnabled": true
        }
    },
    {
        "_id": "c-220",
        "_parentId": "b-220",
        "_type":"component",
        "_component":"mcq",
        "_classes":"",
        "_layout":"full",
        "_attempts":1,
        "_shouldDisplayAttempts": false,
        "_questionWeight":1,
        "_isRandom":false,
        "_selectable":3,
        "_setCompletionOn":"inview",
        "title": "Question 3 of 5",
        "displayTitle": "Question 3 of 5",
        "body": "Which of the following options are available for advertisers to control where their ads appear?  (Choose three.)",
        "instruction": "",
        "_items": [
            {
              "text": "Category blocking",
              "_shouldBeSelected":true
            },
            {
              "text": "Domain/app/page blocking",
              "_shouldBeSelected":true

            },
            {
              "text": "People blocking",
              "_shouldBeSelected":false
            },
            {
              "text": "Placement opt-out",
              "_shouldBeSelected":true
            }
        ],
        "_feedback":{
            "correct":"That's correct!  Advertisers may use category blocking, pre-campaign publisher lists, domain/app/page blocking, and placement opt-out options to control where their ads appear.",
            "_incorrect": {
              "notFinal": "",
              "final": "Sorry, those aren't the right answers.  Advertisers may use category blocking, pre-campaign publisher lists, domain/app/page blocking, and placement opt-out options to control where their ads appear."
            },
            "_partlyCorrect": {
              "notFinal": "",
              "final": "Advertisers may use category blocking, pre-campaign publisher lists, domain/app/page blocking, and placement opt-out options to control where their ads appear."
            }
        },
        "_pageLevelProgress": {
        "_isEnabled": true
        }
    },
    {
        "_id": "c-230",
        "_parentId": "b-230",
        "_type":"component",
        "_component":"mcq",
        "_classes":"",
        "_layout":"full",
        "_attempts":1,
        "_shouldDisplayAttempts": false,
        "_questionWeight":1,
        "_isRandom":false,
        "_selectable":3,
        "_setCompletionOn":"inview",
        "title": "Question 4 of 5",
        "displayTitle": "Question 4 of 5",
        "body": "Which of the following placements can brands use block lists and category block controls?  (Choose three.)",
        "instruction": "",
        "_items": [
            {
              "text": "Ads in Facebook",
              "_shouldBeSelected":false
            },
            {
              "text": "Ads in Audience Network",
              "_shouldBeSelected":true
            },
            {
              "text": "Ads in Instant Articles",
              "_shouldBeSelected":true
            },
            {
              "text": "In-stream ads",
              "_shouldBeSelected":true
            }
        ],
        "_feedback":{
            "correct":"That's correct!  Advertisers can choose to block content within in-stream video, Instant Articles and Audience Network.",
            "_incorrect": {
              "notFinal": "",
              "final": "Sorry, those aren't the right answers.  Advertisers can choose to block content within in-stream video, Instant Articles and Audience Network."
            },
            "_partlyCorrect": {
              "notFinal": "",
              "final": "Advertisers can choose to block content within in-stream video, Instant Articles and Audience Network."
            }
        },
        "_pageLevelProgress": {
        "_isEnabled": true
        }
    },
    {
        "_id": "c-240",
        "_parentId": "b-240",
        "_type":"component",
        "_component":"mcq",
        "_classes":"",
        "_layout":"full",
        "_attempts":1,
        "_shouldDisplayAttempts": false,
        "_questionWeight":1,
        "_isRandom":false,
        "_selectable":3,
        "_setCompletionOn":"inview",
        "title": "Question 5 of 5",
        "displayTitle": "Question 5 of 5",
        "body": "At what level can advertisers create and apply their block lists?  (Choose three.)",
        "instruction": "",
        "_items": [
            {
              "text": "Ad",
              "_shouldBeSelected":false
            },
            {
              "text": "Ad account",
              "_shouldBeSelected":true
            },
            {
              "text": "Ad set",
              "_shouldBeSelected":true
            },
            {
              "text": "Business Manager",
              "_shouldBeSelected":true
            },
            {
              "text": "Campaign",
              "_shouldBeSelected":false
            }
        ],
        "_feedback":{
            "correct":"That's correct!  Advertisers can create and apply block lists at the Business Manager, account and ad set level.",
            "_incorrect": {
              "notFinal": "",
              "final": "Sorry, those aren't the right answers.  Advertisers can create and apply block lists at the Business Manager, account and ad set level."
            },
            "_partlyCorrect": {
              "notFinal": "",
              "final": "Advertisers can create and apply block lists at the Business Manager, account and ad set level."
            }
        },
        "_pageLevelProgress": {
        "_isEnabled": true
        }
    },
    {
        "_id":"c-250",
        "_parentId":"b-250",
        "_type":"component",
        "_component":"text",
        "_classes":"",
        "_layout":"full",
        "title":"Recommended courses",
        "displayTitle":"",
        "instruction":"",
        "body":"To learn more, please check out our other Blueprint courses.<br><br><ul><li><i>Ad Policies for Content, Creative and Targeting</i></li><li><i>Audience Network: Extend the Reach of Your Facebook Campaigns</i></li><li><i>Engaging Storytelling with Instant Articles</i></li></ul>",
        "_pageLevelProgress": {
        "_isEnabled": false
        }
    },
    {
        "_id": "c-290",
        "_parentId": "b-290",
        "_type":"component",
        "_component":"co-jump",
        "_classes":"color-test",
        "_autoComplete":true,
        "_preLinkBody":"Click the button below to finish this course. Note: <a href='#'>click here</a> to verify that status bars for each module are complete.<br>",
        "_linkBody":"<div style = 'text-align:center;padding:8px;'><button class='buttons-action'><b>I'M FINISHED WITH THIS COURSE</b></button></div><br> ",
        "_postLinkBody":"",
        "_link":"",
        "_pageLevelProgress": {
            "_isEnabled": false
        }
    }

]
